VA_2005-2019
…
`summarise()` regrouping output by 'PrecinctName' (override with `.groups` argument)

`summarise()` regrouping output by 'PrecinctName' (override with `.groups` argument)

`summarise()` regrouping output by 'PrecinctName' (override with `.groups` argument)

`summarise()` regrouping output by 'PrecinctName' (override with `.groups` argument)

`summarise()` regrouping output by 'PrecinctName' (override with `.groups` argument)

`summarise()` regrouping output by 'PrecinctName' (override with `.groups` argument)

`summarise()` regrouping output by 'PrecinctName' (override with `.groups` argument)

# A tibble: 2,439 x 4
# Groups:   PrecinctName [2,380]
   PrecinctName                     LocalityName           DHOD  RHOD
   <chr>                            <chr>                 <int> <int>
 1 "001 - ARLINGTON"                ARLINGTON COUNTY        962   206
 2 "001 - CENTRAL"                  POQUOSON CITY           251  1125
 3 "001 - CHESAPEAKE"               MATHEWS COUNTY          234   545
 4 "001 - DEAN"                     MANASSAS CITY           696   401
 5 "001 - EAST"                     GALAX CITY                0   441
 6 "001 - EAST PRECINCT"            RADFORD CITY            862   457
 7 "001 - EAST WARD"                NORTON CITY             295   557
 8 "001 - EMANUEL A. M. E. CHURCH " PORTSMOUTH CITY         806     0
 9 "001 - FIRST"                    COLONIAL HEIGHTS CITY   195   427
10 "001 - FIRST WARD"               BRISTOL CITY              0   535
# ... with 2,429 more rows
…
In [5]:

# TODO: Do this with a loop. I know this is bad, but I can't figure out how else to do it. 
df_votes$G05 <- df_votes$G05 %>% setNames(nm = c("PrecinctName", "G05DHOD", "G05RHOD"))
df_votes$G07 <- df_votes$G07 %>% setNames(nm = c("PrecinctName", "G07DHOD", "G07RHOD"))
df_votes$G09 <- df_votes$G09 %>% setNames(nm = c("PrecinctName", "G09DHOD", "G09RHOD"))
df_votes$G11 <- df_votes$G11 %>% setNames(nm = c("PrecinctName", "G11DHOD", "G11RHOD"))
df_votes$G13 <- df_votes$G13 %>% setNames(nm = c("PrecinctName", "G13DHOD", "G13RHOD"))
df_votes$G15 <- df_votes$G15 %>% setNames(nm = c("PrecinctName", "G15DHOD", "G15RHOD"))
df_votes$G17 <- df_votes$G17 %>% setNames(nm = c("PrecinctName", "G17DHOD", "G17RHOD"))
df_votes$G19 <- df_votes$G19 %>% setNames(nm = c("PrecinctName", "G19DHOD", "G19RHOD"))
print(df_votes)

$G05
# A tibble: 2,178 x 3
   PrecinctName                     G05DHOD G05RHOD
   <chr>                              <int>   <int>
 1 "001 - ARLINGTON"                    616       0
 2 "001 - CENTRAL"                        0     773
 3 "001 - CHESAPEAKE"                     0     569
 4 "001 - DEAN"                         497    1090
 5 "001 - EAST"                           0     406
 6 "001 - EAST WARD"                    400     164
 7 "001 - EAST WARD PRECINCT"           457     530
 8 "001 - EMANUEL A. M. E. CHURCH "     701       0
 9 "001 - FIRST"                          0     643
10 "001 - FIRST WARD"                  1668     524
# ... with 2,168 more rows

$G07
# A tibble: 2,266 x 3
   PrecinctName                     G07DHOD G07RHOD
   <chr>                              <int>   <int>
 1 "001 - ARLINGTON"                    349       0
 2 "001 - CENTRAL"                        0     627
 3 "001 - CHESAPEAKE"                     0     704
 4 "001 - DEAN"                         383     975
 5 "001 - EAST"                         339     241
 6 "001 - EAST WARD"                    626       0
 7 "001 - EAST WARD PRECINCT"           291     223
 8 "001 - EMANUEL A. M. E. CHURCH "     266       0
 9 "001 - FIRST"                          0     201
10 "001 - FIRST WARD"                   516     210
# ... with 2,256 more rows

$G09
# A tibble: 2,263 x 3
   PrecinctName                     G09DHOD G09RHOD
   <chr>                              <int>   <int>
 1 "001 - ARLINGTON"                    567       0
 2 "001 - CENTRAL"                       80     392
 3 "001 - CHESAPEAKE"                     0     680
 4 "001 - DEAN"                         433    1132
 5 "001 - EAST"                           0     367
 6 "001 - EAST WARD"                    731       0
 7 "001 - EAST WARD PRECINCT"           379     393
 8 "001 - EMANUEL A. M. E. CHURCH "     431     308
 9 "001 - FIRST"                          0     553
10 "001 - FIRST WARD"                  1316     876
# ... with 2,253 more rows

$G11
# A tibble: 2,359 x 3
   PrecinctName                     G11DHOD G11RHOD
   <chr>                              <int>   <int>
 1 "001 - ARLINGTON"                    345       0
 2 "001 - CENTRAL"                        0     585
 3 "001 - CHESAPEAKE"                   157     630
 4 "001 - DEAN"                           0    1014
 5 "001 - EAST"                           0     307
 6 "001 - EAST PRECINCT"                344     231
 7 "001 - EAST WARD"                      0     514
 8 "001 - EMANUEL A. M. E. CHURCH "     296       0
 9 "001 - FIRST"                          0     210
10 "001 - FIRST WARD"                   543     780
# ... with 2,349 more rows

$G13
# A tibble: 2,359 x 3
   PrecinctName                     G13DHOD G13RHOD
   <chr>                              <int>   <int>
 1 "001 - ARLINGTON"                    690       0
 2 "001 - CENTRAL"                        0    1116
 3 "001 - CHESAPEAKE"                     0     471
 4 "001 - DEAN"                         778    1216
 5 "001 - EAST"                           0     397
 6 "001 - EAST PRECINCT"                438     392
 7 "001 - EAST WARD"                      0     707
 8 "001 - EMANUEL A. M. E. CHURCH "     665       0
 9 "001 - FIRST"                          0     547
10 "001 - FIRST WARD"                  1046    1486
# ... with 2,349 more rows

$G15
# A tibble: 2,370 x 3
   PrecinctName                     G15DHOD G15RHOD
   <chr>                              <int>   <int>
 1 "001 - ARLINGTON"                    443       0
 2 "001 - CENTRAL"                        0     521
 3 "001 - CHESAPEAKE"                     0     481
 4 "001 - DEAN"                         569    1044
 5 "001 - EAST"                           0     334
 6 "001 - EAST PRECINCT"                262     250
 7 "001 - EAST WARD"                      0     641
 8 "001 - EMANUEL A. M. E. CHURCH "     186       0
 9 "001 - FIRST"                          0     273
10 "001 - FIRST WARD"                  1032     535
# ... with 2,360 more rows

$G17
# A tibble: 2,380 x 3
   PrecinctName                     G17DHOD G17RHOD
   <chr>                              <int>   <int>
 1 "001 - ARLINGTON"                    962     206
 2 "001 - CENTRAL"                      251    1125
 3 "001 - CHESAPEAKE"                   234     545
 4 "001 - DEAN"                         696     401
 5 "001 - EAST"                           0     441
 6 "001 - EAST PRECINCT"                862     457
 7 "001 - EAST WARD"                    295     557
 8 "001 - EMANUEL A. M. E. CHURCH "     806       0
 9 "001 - FIRST"                        195     427
10 "001 - FIRST WARD"                  1182    1247
# ... with 2,370 more rows

$G19
# A tibble: 2,393 x 3
   PrecinctName                     G19DHOD G19RHOD
   <chr>                              <int>   <int>
 1 "001 - ARLINGTON"                    707       0
 2 "001 - CENTRAL"                      316    1005
 3 "001 - CHESAPEAKE"                   210     579
 4 "001 - DEAN"                         701     396
 5 "001 - EAST"                           0     395
 6 "001 - EAST PRECINCT"                347     199
 7 "001 - EAST WARD"                      0     559
 8 "001 - EMANUEL A. M. E. CHURCH "     477     160
 9 "001 - FIRST"                        192     510
10 "001 - FIRST WARD"                  1381     885
# ... with 2,383 more rows
…
$G05
# A tibble: 2,178 x 4
   precinctID precinct                   G05DHOD G05RHOD
   <chr>      <chr>                        <int>   <int>
 1 001        "ARLINGTON"                    616       0
 2 001        "CENTRAL"                        0     773
 3 001        "CHESAPEAKE"                     0     569
 4 001        "DEAN"                         497    1090
 5 001        "EAST"                           0     406
 6 001        "EAST WARD"                    400     164
 7 001        "EAST WARD PRECINCT"           457     530
 8 001        "EMANUEL A. M. E. CHURCH "     701       0
 9 001        "FIRST"                          0     643
10 001        "FIRST WARD"                  1668     524
# ... with 2,168 more rows

$G07
# A tibble: 2,266 x 4
   precinctID precinct                   G07DHOD G07RHOD
   <chr>      <chr>                        <int>   <int>
 1 001        "ARLINGTON"                    349       0
 2 001        "CENTRAL"                        0     627
 3 001        "CHESAPEAKE"                     0     704
 4 001        "DEAN"                         383     975
 5 001        "EAST"                         339     241
 6 001        "EAST WARD"                    626       0
 7 001        "EAST WARD PRECINCT"           291     223
 8 001        "EMANUEL A. M. E. CHURCH "     266       0
 9 001        "FIRST"                          0     201
10 001        "FIRST WARD"                   516     210
# ... with 2,256 more rows

$G09
# A tibble: 2,263 x 4
   precinctID precinct                   G09DHOD G09RHOD
   <chr>      <chr>                        <int>   <int>
 1 001        "ARLINGTON"                    567       0
 2 001        "CENTRAL"                       80     392
 3 001        "CHESAPEAKE"                     0     680
 4 001        "DEAN"                         433    1132
 5 001        "EAST"                           0     367
 6 001        "EAST WARD"                    731       0
 7 001        "EAST WARD PRECINCT"           379     393
 8 001        "EMANUEL A. M. E. CHURCH "     431     308
 9 001        "FIRST"                          0     553
10 001        "FIRST WARD"                  1316     876
# ... with 2,253 more rows

$G11
# A tibble: 2,359 x 4
   precinctID precinct                   G11DHOD G11RHOD
   <chr>      <chr>                        <int>   <int>
 1 001        "ARLINGTON"                    345       0
 2 001        "CENTRAL"                        0     585
 3 001        "CHESAPEAKE"                   157     630
 4 001        "DEAN"                           0    1014
 5 001        "EAST"                           0     307
 6 001        "EAST PRECINCT"                344     231
 7 001        "EAST WARD"                      0     514
 8 001        "EMANUEL A. M. E. CHURCH "     296       0
 9 001        "FIRST"                          0     210
10 001        "FIRST WARD"                   543     780
# ... with 2,349 more rows

$G13
# A tibble: 2,359 x 4
   precinctID precinct                   G13DHOD G13RHOD
   <chr>      <chr>                        <int>   <int>
 1 001        "ARLINGTON"                    690       0
 2 001        "CENTRAL"                        0    1116
 3 001        "CHESAPEAKE"                     0     471
 4 001        "DEAN"                         778    1216
 5 001        "EAST"                           0     397
 6 001        "EAST PRECINCT"                438     392
 7 001        "EAST WARD"                      0     707
 8 001        "EMANUEL A. M. E. CHURCH "     665       0
 9 001        "FIRST"                          0     547
10 001        "FIRST WARD"                  1046    1486
# ... with 2,349 more rows

$G15
# A tibble: 2,370 x 4
   precinctID precinct                   G15DHOD G15RHOD
   <chr>      <chr>                        <int>   <int>
 1 001        "ARLINGTON"                    443       0
 2 001        "CENTRAL"                        0     521
 3 001        "CHESAPEAKE"                     0     481
 4 001        "DEAN"                         569    1044
 5 001        "EAST"                           0     334
 6 001        "EAST PRECINCT"                262     250
 7 001        "EAST WARD"                      0     641
 8 001        "EMANUEL A. M. E. CHURCH "     186       0
 9 001        "FIRST"                          0     273
10 001        "FIRST WARD"                  1032     535
# ... with 2,360 more rows

$G17
# A tibble: 2,380 x 4
   precinctID precinct                   G17DHOD G17RHOD
   <chr>      <chr>                        <int>   <int>
 1 001        "ARLINGTON"                    962     206
 2 001        "CENTRAL"                      251    1125
 3 001        "CHESAPEAKE"                   234     545
 4 001        "DEAN"                         696     401
 5 001        "EAST"                           0     441
 6 001        "EAST PRECINCT"                862     457
 7 001        "EAST WARD"                    295     557
 8 001        "EMANUEL A. M. E. CHURCH "     806       0
 9 001        "FIRST"                        195     427
10 001        "FIRST WARD"                  1182    1247
# ... with 2,370 more rows

$G19
# A tibble: 2,393 x 4
   precinctID precinct                   G19DHOD G19RHOD
   <chr>      <chr>                        <int>   <int>
 1 001        "ARLINGTON"                    707       0
 2 001        "CENTRAL"                      316    1005
 3 001        "CHESAPEAKE"                   210     579
 4 001        "DEAN"                         701     396
 5 001        "EAST"                           0     395
 6 001        "EAST PRECINCT"                347     199
 7 001        "EAST WARD"                      0     559
 8 001        "EMANUEL A. M. E. CHURCH "     477     160
 9 001        "FIRST"                        192     510
10 001        "FIRST WARD"                  1381     885
# ... with 2,383 more rows
…
	2BUCKLAND MILLSPrince William CountyPrince William County Buckland MillsCongressional District 1938.0978.0 0.031.0766.0701.0MULTIPOLYGON (((162078.8 30......4491.190457e-0767311131313MULTIPOLYGON (((162078.8 30...

In [9]:

# remove precinctID since it's actually not a unique identifier
remove_id <- function(x) {
    x %>%
        subset(select = -precinctID)
}
df_votes <- df_votes %>% lapply(remove_id)
print(df_votes)

$G05
# A tibble: 2,178 x 3
   precinct                   G05DHOD G05RHOD
   <chr>                        <int>   <int>
 1 "ARLINGTON"                    616       0
 2 "CENTRAL"                        0     773
 3 "CHESAPEAKE"                     0     569
 4 "DEAN"                         497    1090
 5 "EAST"                           0     406
 6 "EAST WARD"                    400     164
 7 "EAST WARD PRECINCT"           457     530
 8 "EMANUEL A. M. E. CHURCH "     701       0
 9 "FIRST"                          0     643
10 "FIRST WARD"                  1668     524
# ... with 2,168 more rows

$G07
# A tibble: 2,266 x 3
   precinct                   G07DHOD G07RHOD
   <chr>                        <int>   <int>
 1 "ARLINGTON"                    349       0
 2 "CENTRAL"                        0     627
 3 "CHESAPEAKE"                     0     704
 4 "DEAN"                         383     975
 5 "EAST"                         339     241
 6 "EAST WARD"                    626       0
 7 "EAST WARD PRECINCT"           291     223
 8 "EMANUEL A. M. E. CHURCH "     266       0
 9 "FIRST"                          0     201
10 "FIRST WARD"                   516     210
# ... with 2,256 more rows

$G09
# A tibble: 2,263 x 3
   precinct                   G09DHOD G09RHOD
   <chr>                        <int>   <int>
 1 "ARLINGTON"                    567       0
 2 "CENTRAL"                       80     392
 3 "CHESAPEAKE"                     0     680
 4 "DEAN"                         433    1132
 5 "EAST"                           0     367
 6 "EAST WARD"                    731       0
 7 "EAST WARD PRECINCT"           379     393
 8 "EMANUEL A. M. E. CHURCH "     431     308
 9 "FIRST"                          0     553
10 "FIRST WARD"                  1316     876
# ... with 2,253 more rows

$G11
# A tibble: 2,359 x 3
   precinct                   G11DHOD G11RHOD
   <chr>                        <int>   <int>
 1 "ARLINGTON"                    345       0
 2 "CENTRAL"                        0     585
 3 "CHESAPEAKE"                   157     630
 4 "DEAN"                           0    1014
 5 "EAST"                           0     307
 6 "EAST PRECINCT"                344     231
 7 "EAST WARD"                      0     514
 8 "EMANUEL A. M. E. CHURCH "     296       0
 9 "FIRST"                          0     210
10 "FIRST WARD"                   543     780
# ... with 2,349 more rows

$G13
# A tibble: 2,359 x 3
   precinct                   G13DHOD G13RHOD
   <chr>                        <int>   <int>
 1 "ARLINGTON"                    690       0
 2 "CENTRAL"                        0    1116
 3 "CHESAPEAKE"                     0     471
 4 "DEAN"                         778    1216
 5 "EAST"                           0     397
 6 "EAST PRECINCT"                438     392
 7 "EAST WARD"                      0     707
 8 "EMANUEL A. M. E. CHURCH "     665       0
 9 "FIRST"                          0     547
10 "FIRST WARD"                  1046    1486
# ... with 2,349 more rows

$G15
# A tibble: 2,370 x 3
   precinct                   G15DHOD G15RHOD
   <chr>                        <int>   <int>
 1 "ARLINGTON"                    443       0
 2 "CENTRAL"                        0     521
 3 "CHESAPEAKE"                     0     481
 4 "DEAN"                         569    1044
 5 "EAST"                           0     334
 6 "EAST PRECINCT"                262     250
 7 "EAST WARD"                      0     641
 8 "EMANUEL A. M. E. CHURCH "     186       0
 9 "FIRST"                          0     273
10 "FIRST WARD"                  1032     535
# ... with 2,360 more rows

$G17
# A tibble: 2,380 x 3
   precinct                   G17DHOD G17RHOD
   <chr>                        <int>   <int>
 1 "ARLINGTON"                    962     206
 2 "CENTRAL"                      251    1125
 3 "CHESAPEAKE"                   234     545
 4 "DEAN"                         696     401
 5 "EAST"                           0     441
 6 "EAST PRECINCT"                862     457
 7 "EAST WARD"                    295     557
 8 "EMANUEL A. M. E. CHURCH "     806       0
 9 "FIRST"                        195     427
10 "FIRST WARD"                  1182    1247
# ... with 2,370 more rows

$G19
# A tibble: 2,393 x 3
   precinct                   G19DHOD G19RHOD
   <chr>                        <int>   <int>
 1 "ARLINGTON"                    707       0
 2 "CENTRAL"                      316    1005
 3 "CHESAPEAKE"                   210     579
 4 "DEAN"                         701     396
 5 "EAST"                           0     395
 6 "EAST PRECINCT"                347     199
 7 "EAST WARD"                      0     559
 8 "EMANUEL A. M. E. CHURCH "     477     160
 9 "FIRST"                        192     510
10 "FIRST WARD"                  1381     885
# ... with 2,383 more rows
…
